Hw03_couBC
…
At first I tried this - but this is not helpful at all as you would have to scroll through all the rows to try to find the max and min manually.

gapminder %>%
  group_by(continent) %>%
  arrange(gdpPercap)

## # A tibble: 1,704 x 6
## # Groups:   continent [5]
##    country          continent  year lifeExp      pop gdpPercap
##    <fct>            <fct>     <int>   <dbl>    <int>     <dbl>
##  1 Congo, Dem. Rep. Africa     2002    45.0 55379852      241.
##  2 Congo, Dem. Rep. Africa     2007    46.5 64606759      278.
##  3 Lesotho          Africa     1952    42.1   748747      299.
##  4 Guinea-Bissau    Africa     1952    32.5   580653      300.
##  5 Congo, Dem. Rep. Africa     1997    42.6 47798986      312.
##  6 Eritrea          Africa     1952    35.9  1438760      329.
##  7 Myanmar          Asia       1952    36.3 20092996      331 
##  8 Lesotho          Africa     1957    45.0   813338      336.
##  9 Burundi          Africa     1952    39.0  2445618      339.
## 10 Eritrea          Africa     1957    38.0  1542611      344.
## # ... with 1,694 more rows
…
Task 2

Look at spread of GDP per capita within the continents.

gapminder %>% 
  group_by(continent) %>% 
  filter(year == 2007) %>% 
  select(country, gdpPercap)

## Adding missing grouping variables: `continent`

## # A tibble: 142 x 3
## # Groups:   continent [5]
##    continent country     gdpPercap
##    <fct>     <fct>           <dbl>
##  1 Asia      Afghanistan      975.
##  2 Europe    Albania         5937.
##  3 Africa    Algeria         6223.
##  4 Africa    Angola          4797.
##  5 Americas  Argentina      12779.
##  6 Oceania   Australia      34435.
##  7 Europe    Austria        36126.
##  8 Asia      Bahrain        29796.
##  9 Asia      Bangladesh      1391.
## 10 Europe    Belgium        33693.
## # ... with 132 more rows
…
Task 3

How is life expectancy changing over time on different continents?

Need to figure out how to find the difference in lifeExp between the latest data point (2007) and first data point (1952). After trying several u

After trying several unsuccessful ways of creating a new variable that looks at change in lifeExp, I looked at the participation repo for cm_08.

gapminder %>% 
    group_by(continent, country) %>% 
    transmute(lifeExp_change = lifeExp - first(lifeExp))

## # A tibble: 1,704 x 3
## # Groups:   continent, country [142]
##    continent country     lifeExp_change
##    <fct>     <fct>                <dbl>
##  1 Asia      Afghanistan           0   
##  2 Asia      Afghanistan           1.53
##  3 Asia      Afghanistan           3.20
##  4 Asia      Afghanistan           5.22
##  5 Asia      Afghanistan           7.29
##  6 Asia      Afghanistan           9.64
##  7 Asia      Afghanistan          11.1 
##  8 Asia      Afghanistan          12.0 
##  9 Asia      Afghanistan          12.9 
## 10 Asia      Afghanistan          13.0 
## # ... with 1,694 more rows
…
