…
At first I tried this - but this is not helpful at all as you would have to scroll through all the rows to try to find the max and min manually.

``` r
gapminder %>%
  arrange(gdpPercap)
```

    ## # A tibble: 1,704 x 6
    ##    country          continent  year lifeExp      pop gdpPercap
    ##    <fct>            <fct>     <int>   <dbl>    <int>     <dbl>
    ##  1 Congo, Dem. Rep. Africa     2002    45.0 55379852      241.
    ##  2 Congo, Dem. Rep. Africa     2007    46.5 64606759      278.
    ##  3 Lesotho          Africa     1952    42.1   748747      299.
    ##  4 Guinea-Bissau    Africa     1952    32.5   580653      300.
    ##  5 Congo, Dem. Rep. Africa     1997    42.6 47798986      312.
    ##  6 Eritrea          Africa     1952    35.9  1438760      329.
    ##  7 Myanmar          Asia       1952    36.3 20092996      331 
    ##  8 Lesotho          Africa     1957    45.0   813338      336.
    ##  9 Burundi          Africa     1952    39.0  2445618      339.
    ## 10 Eritrea          Africa     1957    38.0  1542611      344.
    ## # ... with 1,694 more rows
…
